Clock Example/simulation/qsim/clock10MHz.msim.vcd
$comment
	File created using the following command:
		vcd file clock10MHz.msim.vcd -direction
$end
$date
	Mon Oct 02 00:19:52 2023
$end
$version
	ModelSim Version 2020.1
$end
$timescale
	1ps
$end

$scope module task2b_vhd_vec_tst $end
$var wire 1 ! coin [3] $end
$var wire 1 " coin [2] $end
$var wire 1 # coin [1] $end
$var wire 1 $ coin [0] $end
$var wire 1 % Reset $end
$var wire 1 & Restart $end
$var wire 1 ' X $end
$var wire 1 ( Y $end
$var wire 1 ) Ya $end
$var wire 1 * Yb $end
$var wire 1 + Yc $end
$var wire 1 , Yd $end
$var wire 1 - Ye $end
$var wire 1 . Yf $end
$var wire 1 / Yg $end
$var wire 1 0 Z $end

$scope module i1 $end
$var wire 1 1 gnd $end
$var wire 1 2 vcc $end
$var wire 1 3 unknown $end
$var wire 1 4 devoe $end
$var wire 1 5 devclrn $end
$var wire 1 6 devpor $end
$var wire 1 7 ww_devoe $end
$var wire 1 8 ww_devclrn $end
$var wire 1 9 ww_devpor $end
$var wire 1 : ww_Ya $end
$var wire 1 ; ww_Reset $end
$var wire 1 < ww_Restart $end
$var wire 1 = ww_coin [3] $end
$var wire 1 > ww_coin [2] $end
$var wire 1 ? ww_coin [1] $end
$var wire 1 @ ww_coin [0] $end
$var wire 1 A ww_Yb $end
$var wire 1 B ww_Yc $end
$var wire 1 C ww_Yd $end
$var wire 1 D ww_Ye $end
$var wire 1 E ww_Yf $end
$var wire 1 F ww_Yg $end
$var wire 1 G ww_X $end
$var wire 1 H ww_Y $end
$var wire 1 I ww_Z $end
$var wire 1 J \Restart~combout\ $end
$var wire 1 K \Reset~combout\ $end
$var wire 1 L \inst|reading_coin_1~regout\ $end
$var wire 1 M \inst|reading_coin_2~regout\ $end
$var wire 1 N \inst|sum[2]~8_combout\ $end
$var wire 1 O \inst|sum[0]~7\ $end
$var wire 1 P \inst|sum[0]~7COUT1_10\ $end
$var wire 1 Q \inst|sum[1]~5\ $end
$var wire 1 R \inst|sum[1]~5COUT1_11\ $end
$var wire 1 S \inst|sum[2]~3\ $end
$var wire 1 T \inst|sum[2]~3COUT1_12\ $end
$var wire 1 U \inst1|insFt5~0_combout\ $end
$var wire 1 V \inst1|inst5~0_combout\ $end
$var wire 1 W \inst1|inst15~0_combout\ $end
$var wire 1 X \inst1|inst5D~0_combout\ $end
$var wire 1 Y \inst1|inst17~0_combout\ $end
$var wire 1 Z \inst1|inst6SA~0_combout\ $end
$var wire 1 [ \inst1|inst6SA22~0_combout\ $end
$var wire 1 \ \inst|LEDY~0_combout\ $end
$var wire 1 ] \inst|LEDX~regout\ $end
$var wire 1 ^ \inst|LEDY~regout\ $end
$var wire 1 _ \inst|LessThan0~0_combout\ $end
$var wire 1 ` \inst|sum\ [3] $end
$var wire 1 a \inst|sum\ [2] $end
$var wire 1 b \inst|sum\ [1] $end
$var wire 1 c \inst|sum\ [0] $end
$var wire 1 d \coin~combout\ [3] $end
$var wire 1 e \coin~combout\ [2] $end
$var wire 1 f \coin~combout\ [1] $end
$var wire 1 g \coin~combout\ [0] $end
$var wire 1 h \ALT_INV_Reset~combout\ $end
$var wire 1 i \ALT_INV_Restart~combout\ $end
$var wire 1 j \inst|ALT_INV_LessThan0~0_combout\ $end
$var wire 1 k \inst1|ALT_INV_insFt5~0_combout\ $end
$upscope $end
$upscope $end
$enddefinitions $end
#0
$dumpvars
1%
1&
0'
0(
1)
1*
1+
1,
1-
1.
0/
00
01
12
x3
14
15
16
17
18
19
1:
1;
1<
1A
1B
1C
1D
1E
0F
0G
0H
0I
1J
1K
0L
0M
1N
0O
0P
1Q
1R
0S
0T
0U
1V
1W
1X
1Y
1Z
0[
1\
0]
0^
1_
0h
0i
0j
1k
0!
1"
1#
1$
0=
1>
1?
1@
0`
0a
0b
0c
0d
1e
1f
1g
$end
#110000
0&
0<
0J
1i
1]
1a
1b
1c
1L
1O
1P
0Q
0R
1S
1T
0X
0Y
0Z
1G
1'
0E
0D
0C
0.
0-
0,
#190000
1&
1<
1J
0i
#390000
0"
0#
0$
0@
0?
0>
0e
0f
0g
0O
0P
0\
1Q
1R
0S
0T
#510000
1#
1?
1f
0Q
0R
1\
1S
1T
#600000
0&
0<
0J
1i
1^
1`
0a
0b
1M
0N
0\
1Q
1R
0S
0T
1Z
1[
0_
1H
1j
1(
1F
1E
1I
1/
1.
10
#680000
1&
1<
1J
0i
#830000
0%
0;
0K
1h
0L
0M
0c
0`
0]
0^
0H
0G
1X
1Y
0[
1_
1N
1\
0j
0(
0'
0F
1D
1C
0I
0/
1-
1,
00
#930000
1%
1;
1K
0h
