Clock Example/simulation/qsim/TaskB.msim.vcd
$comment
	File created using the following command:
		vcd file TaskB.msim.vcd -direction
$end
$date
	Sun Oct 01 01:43:58 2023
$end
$version
	ModelSim Version 2020.1
$end
$timescale
	1ps
$end

$scope module bcd2ssd_vlg_vec_tst $end
$var reg 1 ! A $end
$var reg 1 " B $end
$var reg 1 # C $end
$var reg 1 $ D $end
$var wire 1 % Ya $end
$var wire 1 & Yb $end
$var wire 1 ' Yc $end
$var wire 1 ( Yd $end
$var wire 1 ) Ye $end
$var wire 1 * Yf $end
$var wire 1 + Yg $end

$scope module i1 $end
$var wire 1 , gnd $end
$var wire 1 - vcc $end
$var wire 1 . unknown $end
$var tri1 1 / devclrn $end
$var tri1 1 0 devpor $end
$var tri1 1 1 devoe $end
$var wire 1 2 D~combout $end
$var wire 1 3 B~combout $end
$var wire 1 4 C~combout $end
$var wire 1 5 A~combout $end
$var wire 1 6 insFt5~0_combout $end
$var wire 1 7 inst5~0_combout $end
$var wire 1 8 inst15~0_combout $end
$var wire 1 9 inst5D~0_combout $end
$var wire 1 : inst17~0_combout $end
$var wire 1 ; inst6SA~0_combout $end
$var wire 1 < inst6SA22~0_combout $end
$upscope $end
$upscope $end
$enddefinitions $end
#0
$dumpvars
0!
0"
0#
0$
1%
1&
1'
1(
1)
1*
0+
0,
1-
x.
1/
10
11
02
03
04
05
06
17
18
19
1:
1;
0<
$end
#25000
1$
12
0;
0:
09
16
0*
0)
0(
0%
#50000
1#
0$
14
02
1<
1:
19
08
06
1+
1)
1(
0'
1%
#75000
1$
12
0:
18
0)
1'
#100000
1"
0#
0$
13
04
02
1;
09
16
1*
0(
0%
#125000
1$
12
19
07
06
1(
0&
1%
#150000
1#
0$
14
02
1:
1)
#175000
1$
12
0<
0;
0:
09
17
0+
0*
0)
0(
1&
#200000
1!
0"
0#
0$
15
03
04
02
1<
1;
1:
19
1+
1*
1)
1(
#225000
1$
12
0:
09
0)
0(
#250000
1#
0$
14
02
0;
08
07
16
0*
0'
0&
0%
#275000
1$
12
#300000
1"
0#
0$
13
04
02
#325000
1$
12
#350000
1#
0$
14
02
#375000
1$
12
#400000
0!
0"
0#
0$
05
03
04
02
0<
1;
1:
19
18
17
06
0+
1*
1)
1(
1'
1&
1%
