jk/simulation/qsim/jkf.msim.vcd
$comment
	File created using the following command:
		vcd file jkf.msim.vcd -direction
$end
$date
	Sun Oct 01 23:29:49 2023
$end
$version
	ModelSim Version 2020.1
$end
$timescale
	1ps
$end

$scope module task2b_vhd_vec_tst $end
$var wire 1 ! coin [3] $end
$var wire 1 " coin [2] $end
$var wire 1 # coin [1] $end
$var wire 1 $ coin [0] $end
$var wire 1 % Reset $end
$var wire 1 & Restart $end
$var wire 1 ' X $end
$var wire 1 ( Y $end
$var wire 1 ) Ya $end
$var wire 1 * Yb $end
$var wire 1 + Yc $end
$var wire 1 , Yd $end
$var wire 1 - Ye $end
$var wire 1 . Yf $end
$var wire 1 / Yg $end
$var wire 1 0 Z $end

$scope module i1 $end
$var wire 1 1 gnd $end
$var wire 1 2 vcc $end
$var wire 1 3 unknown $end
$var wire 1 4 devoe $end
$var wire 1 5 devclrn $end
$var wire 1 6 devpor $end
$var wire 1 7 ww_devoe $end
$var wire 1 8 ww_devclrn $end
$var wire 1 9 ww_devpor $end
$var wire 1 : ww_X $end
$var wire 1 ; ww_Reset $end
$var wire 1 < ww_Restart $end
$var wire 1 = ww_coin [3] $end
$var wire 1 > ww_coin [2] $end
$var wire 1 ? ww_coin [1] $end
$var wire 1 @ ww_coin [0] $end
$var wire 1 A ww_Y $end
$var wire 1 B ww_Z $end
$var wire 1 C ww_Ya $end
$var wire 1 D ww_Yb $end
$var wire 1 E ww_Yc $end
$var wire 1 F ww_Yd $end
$var wire 1 G ww_Ye $end
$var wire 1 H ww_Yf $end
$var wire 1 I ww_Yg $end
$var wire 1 J \Restart~combout\ $end
$var wire 1 K \Reset~combout\ $end
$var wire 1 L \inst1|reading_coin_1~regout\ $end
$var wire 1 M \inst1|LEDY~0_combout\ $end
$var wire 1 N \inst1|LEDX~regout\ $end
$var wire 1 O \inst1|LEDY~regout\ $end
$var wire 1 P \inst1|reading_coin_2~regout\ $end
$var wire 1 Q \inst1|process_0~0_combout\ $end
$var wire 1 R \inst1|sum[0]~7\ $end
$var wire 1 S \inst1|sum[0]~7COUT1_9\ $end
$var wire 1 T \inst1|sum[1]~5\ $end
$var wire 1 U \inst1|sum[1]~5COUT1_10\ $end
$var wire 1 V \inst1|sum[2]~3\ $end
$var wire 1 W \inst1|sum[2]~3COUT1_11\ $end
$var wire 1 X \inst1|LEDZ~regout\ $end
$var wire 1 Y \inst|insFt5~0_combout\ $end
$var wire 1 Z \inst|inst5~0_combout\ $end
$var wire 1 [ \inst|inst15~0_combout\ $end
$var wire 1 \ \inst|inst5D~0_combout\ $end
$var wire 1 ] \inst|inst17~0_combout\ $end
$var wire 1 ^ \inst|inst6SA~0_combout\ $end
$var wire 1 _ \inst|inst6SA22~0_combout\ $end
$var wire 1 ` \inst1|sum\ [3] $end
$var wire 1 a \inst1|sum\ [2] $end
$var wire 1 b \inst1|sum\ [1] $end
$var wire 1 c \inst1|sum\ [0] $end
$var wire 1 d \coin~combout\ [3] $end
$var wire 1 e \coin~combout\ [2] $end
$var wire 1 f \coin~combout\ [1] $end
$var wire 1 g \coin~combout\ [0] $end
$var wire 1 h \ALT_INV_Restart~combout\ $end
$var wire 1 i \ALT_INV_Reset~combout\ $end
$var wire 1 j \inst1|ALT_INV_reading_coin_1~regout\ $end
$var wire 1 k \inst|ALT_INV_insFt5~0_combout\ $end
$var wire 1 l \inst1|ALT_INV_sum\ [3] $end
$upscope $end
$upscope $end
$enddefinitions $end
#0
$dumpvars
1%
1&
0'
0(
1)
1*
1+
1,
1-
1.
0/
00
01
12
x3
14
15
16
17
18
19
0:
1;
1<
0A
0B
1C
1D
1E
1F
1G
1H
0I
1J
1K
0L
1M
0N
0O
0P
1Q
0R
0S
1T
1U
0V
0W
0X
0Y
1Z
1[
1\
1]
1^
0_
0h
0i
1j
1k
0!
1"
1#
1$
0=
1>
1?
1@
0`
0a
0b
0c
0d
1e
1f
1g
1l
$end
#180000
0&
0<
0J
1h
1a
1b
1c
1N
1L
0j
0M
1:
1R
1S
0T
0U
1V
1W
0\
0]
0^
1'
0H
0G
0F
0.
0-
0,
#270000
1&
1<
1J
0h
#340000
0"
0$
0@
0>
0e
0g
0R
0S
#500000
0&
0<
0J
1h
1`
0a
0b
1P
0l
0Q
1T
1U
0V
0W
1^
1_
1I
1H
1/
1.
#610000
1&
1<
1J
0h
#800000
0%
0;
0K
1i
0L
0N
0P
0c
0`
1l
1j
1\
1]
0_
0:
1M
1Q
0'
0I
1G
1F
0/
1-
1,
#910000
1%
1;
1K
0i
